Decoding Chaos - Geospatial Analysis1 - Local Measures of Spatial Autocorrelation
…
lisa <- wm_q %>% 
  mutate(local_moran = local_moran(
    Incidents, nb, wt, nsim = 99),
         .before = 1) %>%
  unnest(local_moran)

lisa

Simple feature collection with 80 features and 20 fields
Geometry type: MULTIPOLYGON
Dimension:     XY
Bounding box:  xmin: 92.1721 ymin: 9.696844 xmax: 101.17 ymax: 28.54554
Geodetic CRS:  WGS 84
# A tibble: 80 × 21
        ii      eii  var_ii   z_ii   p_ii p_ii_sim p_folded_sim skewness
     <dbl>    <dbl>   <dbl>  <dbl>  <dbl>    <dbl>        <dbl>    <dbl>
 1  0.264  -0.0177  0.0614   1.14  0.256      0.2          0.1    -0.931
 2  0.451   0.0459  0.170    0.981 0.327      0.08         0.07   -2.01 
 3  0.432  -0.0115  0.0708   1.67  0.0958     0.02         0.01   -1.14 
 4  0.451  -0.0111  0.112    1.38  0.168      0.02         0.01   -1.39 
 5  0.429   0.00269 0.108    1.30  0.195      0.06         0.03   -1.36 
 6  0.436   0.0111  0.118    1.24  0.216      0.04         0.02   -1.81 
 7  0.0242 -0.00466 0.00292  0.534 0.594      0.6          0.3    -1.55 
 8 -0.185   0.00114 0.0425  -0.905 0.365      0.3          0.15    1.13 
 9  0.0509 -0.0107  0.00882  0.656 0.512      0.58         0.29   -1.06 
10 -0.0307  0.00405 0.00432 -0.528 0.597      0.64         0.32    1.33 
# ℹ 70 more rows
# ℹ 13 more variables: kurtosis <dbl>, mean <fct>, median <fct>, pysal <fct>,
#   nb <nb>, wt <list>, DT <chr>, quarter <chr>, event_type <chr>, year <dbl>,
#   Incidents <dbl>, Fatalities <dbl>, geometry <MULTIPOLYGON [°]>
…
Next, we will compute the local Gi* by using the code below.

HCSA <- wm_idw %>% 
  mutate(local_Gi = local_gstar_perm(
    Incidents, nb, wt, nsim = 99),
         .before = 1) %>%
  unnest(local_Gi)
HCSA

Simple feature collection with 80 features and 18 fields
Geometry type: MULTIPOLYGON
Dimension:     XY
Bounding box:  xmin: 92.1721 ymin: 9.696844 xmax: 101.17 ymax: 28.54554
Geodetic CRS:  WGS 84
# A tibble: 80 × 19
   gi_star cluster    e_gi    var_gi std_dev p_value p_sim p_folded_sim skewness
     <dbl> <fct>     <dbl>     <dbl>   <dbl>   <dbl> <dbl>        <dbl>    <dbl>
 1  -1.29  Low     0.0106  0.0000433  -1.04    0.300  0.24         0.12    1.09 
 2  -1.18  Low     0.00853 0.000110   -0.814   0.415  0.1          0.01    1.92 
 3  -1.78  Low     0.0101  0.0000409  -1.50    0.133  0.04         0.02    1.11 
 4  -1.54  Low     0.00878 0.0000451  -1.31    0.191  0.02         0.01    1.37 
 5  -1.48  Low     0.00863 0.0000330  -1.42    0.156  0.04         0.02    0.751
 6  -1.50  Low     0.0102  0.0000453  -1.46    0.143  0.06         0.03    1.22 
 7  -0.537 Low     0.0125  0.0000489  -0.518   0.604  0.68         0.34    1.82 
 8  -0.818 High    0.0142  0.0000445  -1.02    0.305  0.24         0.11    0.981
 9  -0.618 Low     0.0120  0.0000359  -0.681   0.496  0.56         0.28    0.650
10  -0.401 High    0.0121  0.0000392  -0.401   0.688  0.74         0.37    1.05 
# ℹ 70 more rows
# ℹ 10 more variables: kurtosis <dbl>, nb <nb>, wts <list>, DT <chr>,
#   quarter <chr>, event_type <chr>, year <dbl>, Incidents <dbl>,
#   Fatalities <dbl>, geometry <MULTIPOLYGON [°]>
…
